Who’s Friends with Who in Middle School
…
Import Student-Reported Friendships

Let’s use the read_excel() function to import the student-reported-friends.xlsx file. In our function, we’ll include an important “argument” called col_names = and set it to FALSE. This tells R that our file does not include column names and is important to include since our file is a simple matrix with no header or column names. By default this argument is set to true and would assign the first row which contains data about student friendships as names for each column.

Finally, we need to make sure we can reference the matrix we import and use it later in our analysis. To do so, will save it to our “Environment” by assigning it to a variable which we will call student_friends.

student_friends <- read_excel("data/student-reported-friends.xlsx", 
                              col_names = FALSE)

Before importing our teacher reported friendship file, let’s quickly inspect the student_friends R object we just imported to see what we’ll be working with.

student_friends

# A tibble: 27 × 27
    ...1  ...2  ...3  ...4  ...5  ...6  ...7  ...8  ...9 ...10 ...11 ...12 ...13
   <dbl> <dbl> <dbl> <dbl> <dbl> <dbl> <dbl> <dbl> <dbl> <dbl> <dbl> <dbl> <dbl>
 1     0     1     0     1     1     1     1     1     1     0     0     1     0
 2     1     0     0     0     1     0     0     0     0     1     1     0     0
 3     1     0     0     1     0     0     0     1     0     1     0     0     0
 4     1     0     0     0     0     0     0     0     0     0     0     1     0
 5     1     1     0     1     0     1     1     1     1     0     1     1     1
 6     1     0     0     0     1     0     0     0     1     0     1     1     1
 7     1     0     1     1     0     0     0     0     1     0     0     0     1
 8     1     0     1     1     1     0     1     0     1     1     1     0     1
 9     1     0     0     0     0     1     1     0     0     0     1     0     1
10     1     1     1     1     1     0     1     1     0     0     1     1     1
# … with 17 more rows, and 14 more variables: ...14 <dbl>, ...15 <dbl>,
#   ...16 <dbl>, ...17 <dbl>, ...18 <dbl>, ...19 <dbl>, ...20 <dbl>,
#   ...21 <dbl>, ...22 <dbl>, ...23 <dbl>, ...24 <dbl>, ...25 <dbl>,
#   ...26 <dbl>, ...27 <dbl>
…
Add Names

R has packages for creating random names to help anonymize data, but to keep things simple, we’ll just assign the numbers 1 through 27 as rownames and column names, or colnames, to our student_friends matrix.

rownames(student_friends) <- 1:27

colnames(student_friends) <- 1:27

You may have seen a warning stating: Setting row names on a tibble is deprecated. You can ignore that for now but it’s basically telling us these functions are old and we need to use newer functions or our code will some day stop working.

Again, let quickly inspect our student_friends data table to see if this worked:

student_friends

# A tibble: 27 × 27
     `1`   `2`   `3`   `4`   `5`   `6`   `7`   `8`   `9`  `10`  `11`  `12`  `13`
 * <dbl> <dbl> <dbl> <dbl> <dbl> <dbl> <dbl> <dbl> <dbl> <dbl> <dbl> <dbl> <dbl>
 1     0     1     0     1     1     1     1     1     1     0     0     1     0
 2     1     0     0     0     1     0     0     0     0     1     1     0     0
 3     1     0     0     1     0     0     0     1     0     1     0     0     0
 4     1     0     0     0     0     0     0     0     0     0     0     1     0
 5     1     1     0     1     0     1     1     1     1     0     1     1     1
 6     1     0     0     0     1     0     0     0     1     0     1     1     1
 7     1     0     1     1     0     0     0     0     1     0     0     0     1
 8     1     0     1     1     1     0     1     0     1     1     1     0     1
 9     1     0     0     0     0     1     1     0     0     0     1     0     1
10     1     1     1     1     1     0     1     1     0     0     1     1     1
# … with 17 more rows, and 14 more variables: `14` <dbl>, `15` <dbl>,
#   `16` <dbl>, `17` <dbl>, `18` <dbl>, `19` <dbl>, `20` <dbl>, `21` <dbl>,
#   `22` <dbl>, `23` <dbl>, `24` <dbl>, `25` <dbl>, `26` <dbl>, `27` <dbl>
Much better! Now we can see that student 1 indicated that student 2 is their friend, and student 2 indicated that student 1 is their friend, so we can say that this friendship is “reciprocated” or “mutual.” As we’ll see in Unit 2, reciprocity is an import network-level measure in SNA.

Import Student Attributes

Before importing our teacher-reported student friendships, we have another important file to import. As noted by Carolan (2014) , most social network analyses include variables that describe the attributes of actors in a network. These attribute variables can be either categorical (e.g., sex, race, etc.) or continuous in nature (e.g., test scores, number of times absent, etc.).

Actor attributes are stored a rectangular array, or data frame, in which rows represent a social entity (e.g., students, staff, schools, etc.), columns represent variables, and cells consist of values on those variables. This file containing a list of actors, or nodes, along with their attributes is sometimes referred to as a node list.

Let’s go ahead and read our node list into R and store as a new object called student_attributes:

student_attributes <- read_excel("data/student-attributes.xlsx")

student_attributes

# A tibble: 27 × 5
      id gender achievement gender_num achievement_num
   <dbl> <chr>  <chr>            <dbl>           <dbl>
 1     1 female high                 1               1
 2     2 male   average              0               2
 3     3 female average              1               2
 4     4 male   high                 0               1
 5     5 female average              1               2
 6     6 female average              1               2
 7     7 female high                 1               1
 8     8 female average              1               2
 9     9 female high                 1               1
10    10 male   low                  0               3
# … with 17 more rows
…
👉 Your Turn ⤵

Complete the code chunk below to import the teacher-reported-friends.xlsx file, add row and column names, and inspect your teacher_friends object.

# YOUR CODE HERE
teacher_friends <- read_excel("data/teacher-reported-friends.xlsx", 
                              col_names = FALSE)

rownames(teacher_friends) <- 1:27

colnames(teacher_friends) <- 1:27

teacher_friends

# A tibble: 27 × 27
     `1`   `2`   `3`   `4`   `5`   `6`   `7`   `8`   `9`  `10`  `11`  `12`  `13`
 * <dbl> <dbl> <dbl> <dbl> <dbl> <dbl> <dbl> <dbl> <dbl> <dbl> <dbl> <dbl> <dbl>
 1     0     0     0     1     0     0     0     0     0     0     0     1     0
 2     0     0     1     0     0     0     0     1     0     1     0     0     0
 3     0     1     0     0     0     0     0     1     0     1     0     0     0
 4     0     0     0     0     0     0     0     0     0     0     0     0     0
 5     1     0     0     0     0     0     0     0     0     0     0     1     1
 6     0     0     0     0     0     0     0     0     0     0     0     0     1
 7     0     0     0     0     0     0     0     0     0     0     0     0     1
 8     0     1     1     0     0     0     0     0     0     1     0     0     0
 9     0     0     0     0     0     0     0     0     0     0     1     0     0
10     0     1     1     0     0     0     0     1     0     0     0     0     0
# … with 17 more rows, and 14 more variables: `14` <dbl>, `15` <dbl>,
#   `16` <dbl>, `17` <dbl>, `18` <dbl>, `19` <dbl>, `20` <dbl>, `21` <dbl>,
#   `22` <dbl>, `23` <dbl>, `24` <dbl>, `25` <dbl>, `26` <dbl>, `27` <dbl>
…
Let’s take a closer look at those edges. The {tidygraph} package has a useful activate() function that we will be using extensively throughout the SNA case studies. This function allows us to work with the nodes and edges in our network object as if they were typical data frames and apply to them the entire suite of {tidyverse} functions for wrangling and summarizing data.

For now, let’s just use the activate() function to single out the edgelist in our network object, use the as_tibble() function to temporarily convert it to a data frame, and use the <- assignment operator to permanently save it in our environment as student_edges.

We’ll also use a very powerful |> operator called a pipe. Pipes are a powerful tool for combining a sequence of functions or processes. The original pipe operator, %>%, comes from the {magrittr} package but all packages in the tidyverse load %>% for you automatically, so you don’t usually load magrittr explicitly.

The pipe has become such a useful and much used operator in R that it is now baked into R using the new and simpler version of the pipe |> operator demonstrated in the following code chunk:

student_edges <- student_network |>
  activate(edges) |>
  as_tibble()

student_edges

# A tibble: 203 × 3
    from    to weight
   <int> <int>  <dbl>
 1     1     2      1
 2     1     4      1
 3     1     5      1
 4     1     6      1
 5     1     7      1
 6     1     8      1
 7     1     9      1
 8     1    12      1
 9     1    17      1
10     1    21      1
# … with 193 more rows
…
