Collaboration Ties over Time
…
Before importing our Year 3 file, let’s quickly inspect the R object we just imported to see what we’ll be working with.

year_1_collaboration

# A tibble: 43 × 43
    ...1  ...2  ...3  ...4  ...5  ...6  ...7  ...8  ...9 ...10 ...11 ...12 ...13
   <dbl> <dbl> <dbl> <dbl> <dbl> <dbl> <dbl> <dbl> <dbl> <dbl> <dbl> <dbl> <dbl>
 1     0     0     3     0     0     0     0     0     0     0     0     0     0
 2     0     0     0     0     0     0     0     0     0     0     0     0     0
 3     4     0     0     0     0     0     0     0     0     0     0     0     0
 4     0     0     0     0     0     0     0     0     0     0     0     0     0
 5     0     0     0     0     0     0     0     0     3     0     0     0     0
 6     3     0     0     0     0     0     0     0     0     0     0     0     0
 7     0     0     0     0     0     0     0     0     0     0     0     0     0
 8     0     0     0     0     0     0     0     0     0     4     0     0     0
 9     0     0     0     0     4     0     0     0     0     0     0     0     0
10     0     0     0     0     0     0     0     4     0     0     0     0     0
# … with 33 more rows, and 30 more variables: ...14 <dbl>, ...15 <dbl>,
#   ...16 <dbl>, ...17 <dbl>, ...18 <dbl>, ...19 <dbl>, ...20 <dbl>,
#   ...21 <dbl>, ...22 <dbl>, ...23 <dbl>, ...24 <dbl>, ...25 <dbl>,
#   ...26 <dbl>, ...27 <dbl>, ...28 <dbl>, ...29 <dbl>, ...30 <dbl>,
#   ...31 <dbl>, ...32 <dbl>, ...33 <dbl>, ...34 <dbl>, ...35 <dbl>,
#   ...36 <dbl>, ...37 <dbl>, ...38 <dbl>, ...39 <dbl>, ...40 <dbl>,
#   ...41 <dbl>, ...42 <dbl>, ...43 <dbl>
…
year_3_collaboration

# A tibble: 43 × 43
    ...1  ...2  ...3  ...4  ...5  ...6  ...7  ...8  ...9 ...10 ...11 ...12 ...13
   <dbl> <dbl> <dbl> <dbl> <dbl> <dbl> <dbl> <dbl> <dbl> <dbl> <dbl> <dbl> <dbl>
 1     0     2     4     3     1     1     1     3     1     1     1     1     1
 2     0     0     1     0     0     0     0     1     0     0     0     0     0
 3     4     1     0     1     2     2     2     3     2     2     2     2     2
 4     3     2     0     0     0     0     0     1     0     0     1     0     0
 5     1     0     2     0     0     1     1     2     3     0     1     1     2
 6     3     0     0     0     0     0     0     1     1     0     0     0     0
 7     2     1     1     1     2     1     4     2     1     4     1     1     1
 8     3     2     4     1     3     3     2     0     3     3     2     3     3
 9     2     0     2     0     4     2     0     3     0     1     2     2     1
10     2     1     3     2     2     1     4     4     3     0     3     2     2
# … with 33 more rows, and 30 more variables: ...14 <dbl>, ...15 <dbl>,
#   ...16 <dbl>, ...17 <dbl>, ...18 <dbl>, ...19 <dbl>, ...20 <dbl>,
#   ...21 <dbl>, ...22 <dbl>, ...23 <dbl>, ...24 <dbl>, ...25 <dbl>,
#   ...26 <dbl>, ...27 <dbl>, ...28 <dbl>, ...29 <dbl>, ...30 <dbl>,
#   ...31 <dbl>, ...32 <dbl>, ...33 <dbl>, ...34 <dbl>, ...35 <dbl>,
#   ...36 <dbl>, ...37 <dbl>, ...38 <dbl>, ...39 <dbl>, ...40 <dbl>,
#   ...41 <dbl>, ...42 <dbl>, ...43 <dbl>
…
However, one thing you may have noticed from our inspection of the data above is that our data table is missing the names of the school leaders in our network, which are needed for determining dyads in our network. R has packages for creating random names to help anonymize data, but to keep things simple, we’ll just assign the numbers 1-43 as names for our rows and columns.

rownames(year_1_collaboration) <- 1:43

Warning: Setting row names on a tibble is deprecated.

colnames(year_1_collaboration) <- 1:43

You may have seen a warning stating: Setting row names on a tibble is deprecated. You can ignore that for now but it’s basically telling us these functions are old we we need to use newer function or our code will some day stop working.

Again, let quickly inspect our year_1_collaboration data table to see if this worked:

year_1_collaboration

# A tibble: 43 × 43
     `1`   `2`   `3`   `4`   `5`   `6`   `7`   `8`   `9`  `10`  `11`  `12`  `13`
 * <dbl> <dbl> <dbl> <dbl> <dbl> <dbl> <dbl> <dbl> <dbl> <dbl> <dbl> <dbl> <dbl>
 1     0     0     3     0     0     0     0     0     0     0     0     0     0
 2     0     0     0     0     0     0     0     0     0     0     0     0     0
 3     4     0     0     0     0     0     0     0     0     0     0     0     0
 4     0     0     0     0     0     0     0     0     0     0     0     0     0
 5     0     0     0     0     0     0     0     0     3     0     0     0     0
 6     3     0     0     0     0     0     0     0     0     0     0     0     0
 7     0     0     0     0     0     0     0     0     0     0     0     0     0
 8     0     0     0     0     0     0     0     0     0     4     0     0     0
 9     0     0     0     0     4     0     0     0     0     0     0     0     0
10     0     0     0     0     0     0     0     4     0     0     0     0     0
# … with 33 more rows, and 30 more variables: `14` <dbl>, `15` <dbl>,
#   `16` <dbl>, `17` <dbl>, `18` <dbl>, `19` <dbl>, `20` <dbl>, `21` <dbl>,
#   `22` <dbl>, `23` <dbl>, `24` <dbl>, `25` <dbl>, `26` <dbl>, `27` <dbl>,
#   `28` <dbl>, `29` <dbl>, `30` <dbl>, `31` <dbl>, `32` <dbl>, `33` <dbl>,
#   `34` <dbl>, `35` <dbl>, `36` <dbl>, `37` <dbl>, `38` <dbl>, `39` <dbl>,
#   `40` <dbl>, `41` <dbl>, `42` <dbl>, `43` <dbl>
…
