Unit 3: Components, Cliques, & Key Actors
…
Comment_id = Unique identifier of a comment\

Let’s use the read_csv() function from the {readr} and {janitor} packages introduced in previous units to read in our edge-list and clean up the variables names:

dlt1_ties <- read_csv("data/dlt1-edges.csv", 
                      col_types = cols(Sender = col_character(), 
                                       Receiver = col_character(), 
                                       `Category Text` = col_skip(), 
                                       `Comment ID` = col_character(), 
                                       `Discussion ID` = col_character())) |>
  clean_names()

dlt1_ties

# A tibble: 2,529 × 9
   sender receiver timestamp   discussion_title discussion_cate… parent_category
   <chr>  <chr>    <chr>       <chr>            <chr>            <chr>          
 1 360    444      4/4/13 16:… Most important … Group N          Units 1-3 Disc…
 2 356    444      4/4/13 18:… Most important … Group D-L        Units 1-3 Disc…
 3 356    444      4/4/13 18:… DLT Resources—C… Group D-L        Units 1-3 Disc…
 4 344    444      4/4/13 18:… Most important … Group O-T        Units 1-3 Disc…
 5 392    444      4/4/13 19:… Most important … Group U-Z        Units 1-3 Disc…
 6 219    444      4/4/13 19:… Most important … Group M          Units 1-3 Disc…
 7 318    444      4/4/13 19:… Most important … Group M          Units 1-3 Disc…
 8 4      444      4/4/13 19:… Most important … Group N          Units 1-3 Disc…
 9 355    356      4/4/13 20:… DLT Resources—C… Group D-L        Units 1-3 Disc…
10 355    444      4/4/13 20:… Most important … Group D-L        Units 1-3 Disc…
# … with 2,519 more rows, and 3 more variables: discussion_identifier <chr>,
#   comment_id <chr>, discussion_id <chr>
…
# YOUR CODE HERE
dlt1_actors <- read_csv("data/dlt1-nodes.csv", 
                   col_types = cols(UID = col_character(), 
                                    Facilitator = col_character(), 
                                    expert = col_character(), 
                                    connect = col_character())) |>
  clean_names()

Now use the code chunk below to inspect the data you imported and complete the matching exercise that follows:

#YOUR CODE HERE

dlt1_actors

# A tibble: 445 × 13
   uid   facilitator role1 experience experience2 grades location region country
   <chr> <chr>       <chr>      <dbl> <chr>       <chr>  <chr>    <chr>  <chr>  
 1 1     0           libm…          1 6 to 10     secon… VA       South  US     
 2 2     0           clas…          1 6 to 10     secon… FL       South  US     
 3 3     0           dist…          2 11 to 20    gener… PA       North… US     
 4 4     0           clas…          2 11 to 20    middle NC       South  US     
 5 5     0           othe…          3 20+         gener… AL       South  US     
 6 6     0           clas…          1 4 to 5      gener… AL       South  US     
 7 7     0           inst…          2 11 to 20    gener… SD       Midwe… US     
 8 8     0           spec…          1 6 to 10     secon… BE       Inter… BE     
 9 9     0           clas…          1 6 to 10     middle NC       South  US     
10 10    0           scho…          2 11 to 20    middle NC       South  US     
# … with 435 more rows, and 4 more variables: group <chr>, gender <chr>,
#   expert <chr>, connect <chr>
…
Wow! If your code was correct, you’ll see that we have a whopping 209 distinct components!

As demonstrated in the previous case study, the {tidygraph} package has a very useful activate() function for working with our nodes and edges as if they were standard “tibbles,” or tidy data tables.

Let’s use the activate() function to single out the node list in our network and use the familiar mutate() and group_components() functions to create a new strong_component variable that indicates and saves the strong components to which each node belongs:

dlt1_network <- dlt1_network |>
  activate(nodes) |>
  mutate(strong_component = group_components(type = "strong"))

Let’s take a look at the nodes in our new dlt1_network, which should now contain our new variable. To do so, we’ll use another handy function from the {tidygraph} package, as_tibble(), that will temporarily convert our node list to a standard table that will allow us to view every row in our node list:

as_tibble(dlt1_network)

# A tibble: 445 × 14
   uid   facilitator role1 experience experience2 grades location region country
   <chr> <chr>       <chr>      <dbl> <chr>       <chr>  <chr>    <chr>  <chr>  
 1 1     0           libm…          1 6 to 10     secon… VA       South  US     
 2 2     0           clas…          1 6 to 10     secon… FL       South  US     
 3 3     0           dist…          2 11 to 20    gener… PA       North… US     
 4 4     0           clas…          2 11 to 20    middle NC       South  US     
 5 5     0           othe…          3 20+         gener… AL       South  US     
 6 6     0           clas…          1 4 to 5      gener… AL       South  US     
 7 7     0           inst…          2 11 to 20    gener… SD       Midwe… US     
 8 8     0           spec…          1 6 to 10     secon… BE       Inter… BE     
 9 9     0           clas…          1 6 to 10     middle NC       South  US     
10 10    0           scho…          2 11 to 20    middle NC       South  US     
# … with 435 more rows, and 5 more variables: group <chr>, gender <chr>,
#   expert <chr>, connect <chr>, strong_component <int>

We could even extend this if we liked to create some standard table summaries using the summarise() function. Run the code below to create a count of the number of nodes in each strong component:

dlt1_network |>
  as_tibble() |>
  group_by(strong_component) |>
  summarise(count = n()) |>
  arrange(desc(count))

# A tibble: 209 × 2
   strong_component count
              <int> <int>
 1                1   237
 2                2     1
 3                3     1
 4                4     1
 5                5     1
 6                6     1
 7                7     1
 8                8     1
 9                9     1
10               10     1
# … with 199 more rows
…
unmorph() will change our undirected network back to a directed network.

Run the following code to group our nodes based on their edge betweenness and print our updated dlt1_network object and take a quick look. Because this is a bit computationally intensive, it make take a minute or so to run.

dlt1_network <- dlt1_network |>
  morph(to_undirected) |>
  activate(nodes) |>
  mutate(sub_group = group_edge_betweenness()) |>
  unmorph()

dlt1_network |>
  as_tibble()

# A tibble: 445 × 15
   uid   facilitator role1 experience experience2 grades location region country
   <chr> <chr>       <chr>      <dbl> <chr>       <chr>  <chr>    <chr>  <chr>  
 1 1     0           libm…          1 6 to 10     secon… VA       South  US     
 2 2     0           clas…          1 6 to 10     secon… FL       South  US     
 3 3     0           dist…          2 11 to 20    gener… PA       North… US     
 4 4     0           clas…          2 11 to 20    middle NC       South  US     
 5 5     0           othe…          3 20+         gener… AL       South  US     
 6 6     0           clas…          1 4 to 5      gener… AL       South  US     
 7 7     0           inst…          2 11 to 20    gener… SD       Midwe… US     
 8 8     0           spec…          1 6 to 10     secon… BE       Inter… BE     
 9 9     0           clas…          1 6 to 10     middle NC       South  US     
10 10    0           scho…          2 11 to 20    middle NC       South  US     
# … with 435 more rows, and 6 more variables: group <chr>, gender <chr>,
#   expert <chr>, connect <chr>, strong_component <int>, sub_group <int>

As you scroll through the nodes tibble produced, you should now see at the far end a new subgroup variable that includes an ID number indicating to which densely connected cluster each node belongs.

Finally, let get a count of Run the following code to group our nodes and print our new cccss_network_groups object and take a quick look:

dlt1_network |>
  activate(nodes) |>
  as_tibble() |>
  group_by(sub_group) |>
  summarise(count = n()) |>
  arrange(desc(count))

# A tibble: 326 × 2
   sub_group count
       <int> <int>
 1         1    72
 2         2     6
 3         3     5
 4         4     4
 5         5     3
 6         6     3
 7         7     3
 8         8     3
 9         9     2
10        10     2
# … with 316 more rows
…
We can use the same {tidygraph} process that we used for identifying groups and individual membership to calculate the size for each node. Specifically, we will need to activate() the nodes in our network and create a new variable which we’ll call size that is calculated using the local_size() function.

And since it’s much easier to inspect our data as a tibble than using the graph output, we’ll also convert our node to a table and arrange() in descending order by size to make it easier to see the range in values of our network:

dlt1_network <- dlt1_network |>
  activate(nodes) |>
  mutate(size = local_size())

dlt1_network |> 
  as_tibble() |>
  arrange(desc(size)) |> 
  select(uid, facilitator, size)

# A tibble: 445 × 3
   uid   facilitator  size
   <chr> <chr>       <dbl>
 1 444   1             295
 2 445   1             160
 3 44    0              61
 4 11    0              51
 5 7     0              42
 6 30    0              42
 7 19    0              39
 8 60    0              39
 9 36    0              37
10 432   0              36
# … with 435 more rows
…
Degree is the number of ties to and from an ego. In a directed network, in-degree is the number of ties received, whereas out-degree is the number of ties sent.

The {tidygraph} package has an aptly named function centrality_degree() for calculating degree, in-degree, and out-degree for all actors in a network.

Run the following create two new variables for our nodes: in_dgree and out_degree. We’ll set the mode = argument in centrality_degree() function to "in" and "out" respectively.

dlt1_network <- dlt1_network |>
  activate(nodes) |>
  mutate(in_degree = centrality_degree(mode = "in"),
         out_degree = centrality_degree(mode = "out"))
  
dlt1_network |> 
  as_tibble()

# A tibble: 445 × 18
   uid   facilitator role1 experience experience2 grades location region country
   <chr> <chr>       <chr>      <dbl> <chr>       <chr>  <chr>    <chr>  <chr>  
 1 1     0           libm…          1 6 to 10     secon… VA       South  US     
 2 2     0           clas…          1 6 to 10     secon… FL       South  US     
 3 3     0           dist…          2 11 to 20    gener… PA       North… US     
 4 4     0           clas…          2 11 to 20    middle NC       South  US     
 5 5     0           othe…          3 20+         gener… AL       South  US     
 6 6     0           clas…          1 4 to 5      gener… AL       South  US     
 7 7     0           inst…          2 11 to 20    gener… SD       Midwe… US     
 8 8     0           spec…          1 6 to 10     secon… BE       Inter… BE     
 9 9     0           clas…          1 6 to 10     middle NC       South  US     
10 10    0           scho…          2 11 to 20    middle NC       South  US     
# … with 435 more rows, and 9 more variables: group <chr>, gender <chr>,
#   expert <chr>, connect <chr>, strong_component <int>, sub_group <int>,
#   size <dbl>, in_degree <dbl>, out_degree <dbl>
…
👉 Your Turn ⤵

Use the code chunk below to add a closeness and betweenness variable to the nodes in our network and answer the questions that follow. Hint: you may want to look at the functions to calculate node and edge centrality on the {tidygraph} package website.

# YOUR CODE HERE
dlt1_network <- dlt1_network |>
  activate(nodes) |>
  mutate(closeness = centrality_closeness(),
         betweenness = centrality_betweenness()) |>
  arrange(desc(betweenness))

dlt1_network |> 
  as_tibble()

# A tibble: 445 × 20
   uid   facilitator role1 experience experience2 grades location region country
   <chr> <chr>       <chr>      <dbl> <chr>       <chr>  <chr>    <chr>  <chr>  
 1 444   1           othe…          3 20+         gener… NC       South  US     
 2 445   1           othe…          3 20+         gener… NC       South  US     
 3 44    0           inst…          2 11 to 20    middle NC       South  US     
 4 19    0           othe…          3 20+         colle… AU       Inter… AU     
 5 30    0           scho…          3 20+         secon… NC       South  US     
 6 432   0           inst…          1 6 to 10     secon… NC       South  US     
 7 60    0           clas…          2 11 to 20    middle NC       South  US     
 8 11    0           other          3 20+         gener… KG       Inter… KG     
 9 109   0           inst…          3 20+         prima… TX       South  US     
10 36    0           clas…          2 11 to 20    secon… UT       West   US     
# … with 435 more rows, and 11 more variables: group <chr>, gender <chr>,
#   expert <chr>, connect <chr>, strong_component <int>, sub_group <int>,
#   size <dbl>, in_degree <dbl>, out_degree <dbl>, closeness <dbl>,
#   betweenness <dbl>
…
